Introduction to tumopp • tumopp
…
This is an R interface of tumopp, a tumor growth simulator in C++. The parameter values and resulting populations are returned in a nested tibble. See ?tumopp for details.

library(tumopp)
result = tumopp("--seed=24601 -D3 -Cmoore -k10 -N1000")
colnames(result)
#>  [1] "alpha0"     "benchmark"  "beta0"      "coord"      "delta0"    
#>  [6] "dimensions" "extinction" "interval"   "local"      "ma"        
#> [11] "max"        "max_time"   "mb"         "md"         "mm"        
#> [16] "mutate"     "origin"     "outdir"     "path"       "plateau"   
#> [21] "prolif"     "record"     "resistant"  "rho0"       "sa"        
#> [26] "sb"         "sd"         "seed"       "shape"      "sm"        
#> [31] "symmetric"  "treatment"  "ua"         "ub"         "ud"        
#> [36] "um"         "verbose"    "population" "graph"
result$population[[1L]] %>% dplyr::arrange(id)
#> # A tibble: 1,999 x 8
#>        x     y     z    id ancestor birth death omega
#>    <int> <int> <int> <int>    <int> <dbl> <dbl> <int>
#>  1     0     0     0     1        0  0     1.28    -1
#>  2     0     0     0     2        1  1.28  2.18    -1
#>  3     1     1     0     3        1  1.28  1.89    -1
#>  4     1     1     0     4        3  1.89  3.14    -1
#>  5     1     2     1     5        3  1.89  2.80    -1
#>  6     1     0     1     6        2  2.18  3.20    -1
#>  7    -1     0    -1     7        2  2.18  3.13    -1
#>  8     1     2     1     8        5  2.80  3.80    -1
#>  9     2     3     2     9        5  2.80  3.92    -1
#> 10    -1     0    -1    10        7  3.13  4.82    -1
#> # … with 1,989 more rows
…
