Multi-region sampling • tumopp
…
library(ggplot2)
library(tumopp)
set.seed(24601L)
result = tumopp::tumopp("-N20000 -D3 -Chex -Lconst -k10")
population = result$population[[1L]]
graph = result$graph[[1L]]

Sample cells and put neutral mutations on the lineages:

extant = population |> tumopp::filter_extant()
ncell = 200L
regions = tumopp::sample_uniform_regions(extant, nsam = 4L, ncell = ncell)
subgraph = tumopp::subtree(graph, unlist(regions$id))
vaf = tumopp::make_vaf(subgraph, regions$id, mu = 8.0) |> print()
## # A tibble: 29,148 × 4
##      `1`   `2`   `3`   `4`
##    <dbl> <dbl> <dbl> <dbl>
##  1     0     0 0.005     0
##  2     0     0 0.005     0
##  3     0     0 0.005     0
##  4     0     0 0.005     0
##  5     0     0 0.005     0
##  6     0     0 0.005     0
##  7     0     0 0.005     0
##  8     0     0 0.005     0
##  9     0     0 0.005     0
## 10     0     0 0.005     0
## # ℹ 29,138 more rows
…
