Introduction to tumopp • tumopp
…
library(tumopp)
set.seed(24601L)
result = tumopp::tumopp("-D3 -Cmoore -k10 -N1000")
colnames(result)
##  [1] "alpha0"     "benchmark"  "beta0"      "coord"      "delta0"    
##  [6] "dimensions" "extinction" "interval"   "local"      "ma"        
## [11] "max"        "max_time"   "mb"         "md"         "mm"        
## [16] "mutate"     "origin"     "outdir"     "path"       "plateau"   
## [21] "prolif"     "record"     "resistant"  "rho0"       "sa"        
## [26] "sb"         "sd"         "seed"       "shape"      "sm"        
## [31] "symmetric"  "treatment"  "ua"         "ub"         "ud"        
## [36] "um"         "verbose"    "population" "graph"
result$population[[1L]] |> dplyr::arrange(id)
## # A tibble: 1,999 × 8
##        x     y     z    id ancestor birth death omega
##    <int> <int> <int> <int>    <int> <dbl> <dbl> <int>
##  1     0     0     0     1        0  0     1.36    -1
##  2     0     0     0     2        1  1.36  2.04    -1
##  3     0     0     1     3        1  1.36  2.37    -1
##  4     0     0     0     4        2  2.04  2.69    -1
##  5    -1     1     0     5        2  2.04  3.07    -1
##  6     0     0     1     6        3  2.37  3.48    -1
##  7     1     0     2     7        3  2.37  3.15    -1
##  8     0     0     0     8        4  2.69  3.41    -1
##  9     0    -1    -1     9        4  2.69  3.52    -1
## 10    -1     1     0    10        5  3.07  4.43    -1
## # ℹ 1,989 more rows
…
